[
  {
    "description": "Add authentication support for build info, and add optional ignore flag for any commit errors",
    "type": "minor"
  },
  {
    "description": "Update Dockerfile to use octo 7.4.3576",
    "type": "minor"
  }
]